<svg xmlns="http://www.w3.org/2000/svg" width="30.544" height="37.282" viewBox="0 0 30.544 37.282">
  <g id="Group_273" data-name="Group 273" transform="translate(-1597.761 -355.306)">
    <path id="Path_409" data-name="Path 409" d="M1626.768,377.246l-1.749-4.268,0-.011a20.069,20.069,0,0,1-1.23-10.857l1.013-6.165.006-.037,0-.024a.548.548,0,0,0-.477-.575c-.371-.032-.827.332-1.008,1.438l-.845,5.147a21.4,21.4,0,0,0,1.316,11.589l1.458,3.559c-.447.112-.9.219-1.357.318a54.417,54.417,0,0,1-10.819,1.117H1613a54.425,54.425,0,0,1-10.818-1.116c-.457-.1-.913-.207-1.359-.319l1.458-3.559a21.4,21.4,0,0,0,1.316-11.589l-.845-5.147c-.181-1.106-.639-1.47-1.008-1.438a.548.548,0,0,0-.477.576l0,.026,1.018,6.2a20.088,20.088,0,0,1-1.226,10.849l-1.758,4.287a20.712,20.712,0,0,0-1.288,11.033l.592,3.748a.567.567,0,0,0,.023.09.669.669,0,0,0,.738.464.666.666,0,0,0,.554-.762l-.592-3.748c-.04-.25-.075-.512-.106-.778a19.212,19.212,0,0,1-.128-2.185,19.434,19.434,0,0,1,.312-3.479l12.962,6.2v4.089a.666.666,0,0,0,1.333,0v-4.089l12.962-6.2a19.438,19.438,0,0,1,.312,3.479,19.175,19.175,0,0,1-.128,2.185c-.031.266-.066.528-.106.778l-.592,3.748a.667.667,0,0,0,.552.762.674.674,0,0,0,.743-.473.482.482,0,0,0,.02-.08l.592-3.748a20.708,20.708,0,0,0-1.288-11.033Zm-.4,3.046-13.335,6.385-13.336-6.385a19.408,19.408,0,0,1,.629-1.993c.427.109,1.053.258,1.855.421a51.4,51.4,0,0,0,10.646,1.091h.413a51.406,51.406,0,0,0,10.644-1.09c.805-.164,1.43-.313,1.857-.422A19.3,19.3,0,0,1,1626.369,380.292Z" transform="translate(0 0)" fill="#61b2d7"/>
    <path id="Path_410" data-name="Path 410" d="M1684.332,445.3a.667.667,0,0,0,.666-.666v-.488a.666.666,0,1,0-1.332,0v.488A.667.667,0,0,0,1684.332,445.3Z" transform="translate(-71.299 -73.186)" fill="#61b2d7"/>
  </g>
</svg>
